<?xml version="1.0" encoding="UTF-8"?>
<glyph name="b" format="1">
  <advance width="500"/>
  <unicode hex="0062"/>
  <outline>
    <contour>
      <point x="333" y="528" type="line"/>
      <point x="312" y="546" type="line"/>
      <point x="181" y="509" type="line"/>
      <point x="181" y="48" type="line"/>
      <point x="312" y="48" type="line"/>
      <point x="333" y="66" type="line"/>
    </contour>
    <contour>
      <point x="433" y="506" type="line"/>
      <point x="433" y="88" type="line"/>
      <point x="345" y="0" type="line"/>
      <point x="81" y="0" type="line"/>
      <point x="81" y="840" type="line"/>
      <point x="181" y="840" type="line"/>
      <point x="181" y="549" type="line"/>
      <point x="345" y="603" type="line"/>
    </contour>
  </outline>
  <lib>
    <dict>
      <key>com.fontlab.hintData</key>
      <dict>
        <key>hhints</key>
        <array>
          <dict>
            <key>position</key>
            <integer>0</integer>
            <key>width</key>
            <integer>48</integer>
          </dict>
        </array>
        <key>vhints</key>
        <array>
          <dict>
            <key>position</key>
            <integer>81</integer>
            <key>width</key>
            <integer>100</integer>
          </dict>
          <dict>
            <key>position</key>
            <integer>333</integer>
            <key>width</key>
            <integer>100</integer>
          </dict>
        </array>
      </dict>
    </dict>
  </lib>
</glyph>
